…
``` r
#a quick look at some examples
  (dups <- df_mechs %>% 
    group_by(mechanismid) %>% 
    mutate(obs = n()) %>% 
    ungroup() %>% 
    arrange(obs, mechanismid) %>% 
    filter(obs > 1))
```

    ## # A tibble: 190 x 5
    ##    operatingunit mechanismid primepartner    implementingmechanismn~   obs
    ##    <chr>         <chr>       <chr>           <chr>                   <int>
    ##  1 Zambia        10227       Western Provin~ WPHO Follow on              2
    ##  2 Zambia        10227       Western Provin~ WPHO Followon               2
    ##  3 Zambia        10236       University Tea~ University Teaching Ho~     2
    ##  4 Zambia        10236       University Tea~ University Teaching Ho~     2
    ##  5 Zambia        10238       TBD             TBD (ZNBTS)                 2
    ##  6 Zambia        10238       Zambia Nationa~ ZNBTS                       2
    ##  7 Mozambique    12168       Pathfinder Int~ Increasing access to H~     2
    ##  8 Mozambique    12168       Pathfinder Int~ PATHFINDER                  2
    ##  9 Kenya         13546       Henry Jackson ~ Kisumu West                 2
    ## 10 Kenya         13546       Henry Jackson ~ Kisumu West (Placehold~     2
    ## # ... with 180 more rows

To solve this issue of different names associated with each mechanism id, we can use an API pull from DATIM's public data to determine which set of names is currently in use, i.e. the latest in FACTSInfo, and replace all the names in the dataset with theses.

Inspec the help file of `rename_official()` and then use it to fix the dataset

``` r
#replace the outdated names
  dups %>% 
    rename_official()
```

    ## # A tibble: 190 x 5
    ##    operatingunit mechanismid primepartner       implementingmechani~   obs
    ##    <chr>         <chr>       <chr>              <chr>                <int>
    ##  1 Zambia        10227       Western Province ~ WPHO Follow on           2
    ##  2 Zambia        10227       Western Province ~ WPHO Follow on           2
    ##  3 Zambia        10236       University Teachi~ University Teaching~     2
    ##  4 Zambia        10236       University Teachi~ University Teaching~     2
    ##  5 Zambia        10238       TBD                TBD (ZNBTS)              2
    ##  6 Zambia        10238       TBD                TBD (ZNBTS)              2
    ##  7 Mozambique    12168       Pathfinder Intern~ PATHFINDER               2
    ##  8 Mozambique    12168       Pathfinder Intern~ PATHFINDER               2
    ##  9 Kenya         13546       Henry Jackson Fou~ Kisumu West (Placeh~     2
    ## 10 Kenya         13546       Henry Jackson Fou~ Kisumu West (Placeh~     2
    ## # ... with 180 more rows
…
